<svg xmlns="http://www.w3.org/2000/svg" width="12" height="12" viewBox="0 0 12 12">
    <path fill="#FFF" d="M5.253.511c.283-.681 1.21-.681 1.494 0l1.29 3.105 3.226.321c.708.07.995.99.46 1.483L9.296 7.66l.704 3.302c.155.726-.595 1.295-1.208.917L6 10.159l-2.79 1.72c-.614.379-1.364-.19-1.21-.916l.705-3.303L.276 5.42C-.258 4.929.03 4.009.738 3.939l3.226-.321L5.253.512z" opacity=".693"/>
</svg>
